<svg xmlns="http://www.w3.org/2000/svg" width="16" height="16" viewBox="0 0 16 16">
    <g fill="none" fill-rule="evenodd" stroke="#CCC" stroke-width="2" transform="translate(1 1)">
        <circle cx="6" cy="6" r="6"/>
        <path stroke-linecap="round" d="M10.5 10.5L14 14"/>
    </g>
</svg>
